28.0, 15.563
30.0, 213.276
35.0, 739.74
40.0, 764.365
45.0, 372.69
50.0, 166.401
55.0, 104.73
60.0, 79.5248
65.0, 64.8101
70.0, 54.7292
75.0, 46.9861
80.0, 41.1015
90.0, 32.862
100.0, 27.0111
110.0, 22.3887
120.0, 19.7485
130.0, 16.9181
140.0, 15.504
150.0, 13.2749
160.0, 12.5941
180.0, 10.4567
200.0, 9.0748
