24.0, 0.0607983
26.0, 0.583228
28.0, 1.61
30.0, 3.49383
35.0, 9.69405
40.0, 16.5066
45.0, 21.8376
50.0, 24.1906
55.0, 23.5995
60.0, 20.9959
65.0, 17.4338
70.0, 13.9418
75.0, 10.841
80.0, 8.27838
90.0, 4.84596
100.0, 2.94863
110.0, 1.97084
120.0, 1.46287
130.0, 1.18622
140.0, 0.991822
150.0, 0.939204
160.0, 0.85252
180.0, 0.779307
200.0, 0.727819
