30.0, 0.00037499
35.0, 0.517847
40.0, 4.7239
45.0, 51.8809
50.0, 152.997
55.0, 259.2
60.0, 316.107
65.0, 324.766
70.0, 325.606
75.0, 345.289
80.0, 374.156
90.0, 435.731
100.0, 468.805
110.0, 443.987
120.0, 377.251
130.0, 302.153
140.0, 244.45
150.0, 188.842
160.0, 144.42
180.0, 101.475
200.0, 80.7217
