12.0, 17.4296
13.0, 71.5463
14.0, 125.089
15.0, 167.88
16.0, 201.103
17.0, 230.199
18.0, 250.717
19.0, 269.414
20.0, 271.566
22.0, 233.665
24.0, 181.706
26.0, 145.921
28.0, 125.913
30.0, 114.299
35.0, 94.3418
40.0, 74.041
45.0, 54.5071
50.0, 38.42
55.0, 26.7197
60.0, 18.693
65.0, 13.4382
70.0, 9.83174
75.0, 7.53858
80.0, 6.01083
90.0, 4.1897
100.0, 3.28856
110.0, 2.69468
120.0, 2.26891
130.0, 1.97654
140.0, 1.74141
150.0, 1.52782
160.0, 1.41037
180.0, 1.13979
200.0, 0.93701
