17.0, 5.25172e-06
18.0, 0.000519439
19.0, 0.0106309
20.0, 0.068517
22.0, 0.51626
24.0, 1.42323
26.0, 2.74155
28.0, 8.57677
30.0, 30.6369
35.0, 127.8
40.0, 232.008
45.0, 299.099
50.0, 320.943
55.0, 340.217
60.0, 367.674
65.0, 393.696
70.0, 401.004
75.0, 390.579
80.0, 366.971
90.0, 305.182
100.0, 241.735
110.0, 181.733
120.0, 136.761
130.0, 110.273
140.0, 86.4228
150.0, 74.7969
160.0, 63.3137
180.0, 53.5208
200.0, 45.1576
