28.0, 0.488464
30.0, 68.5774
35.0, 593.063
40.0, 730.311
45.0, 445.717
50.0, 185.841
55.0, 103.794
60.0, 76.227
65.0, 61.4784
70.0, 51.1145
75.0, 44.1522
80.0, 38.4975
90.0, 30.2126
100.0, 25.0287
110.0, 20.9234
120.0, 18.7506
130.0, 16.4164
140.0, 14.5847
150.0, 12.6349
160.0, 11.9439
180.0, 9.75395
200.0, 8.69705
