28.0, 0.17122
30.0, 11.2396
35.0, 163.197
40.0, 299.381
45.0, 313.691
50.0, 252.933
55.0, 206.206
60.0, 198.668
65.0, 200.298
70.0, 199.25
75.0, 187.934
80.0, 171.673
90.0, 130.656
100.0, 92.5737
110.0, 62.8254
120.0, 40.7455
130.0, 27.3485
140.0, 19.3219
150.0, 14.382
160.0, 10.8946
180.0, 7.4678
200.0, 6.03369
