17.0, 0.44046
18.0, 6.85776
19.0, 23.1979
20.0, 45.1136
22.0, 84.5058
24.0, 103.486
26.0, 108.63
28.0, 108.386
30.0, 105.47
35.0, 75.174
40.0, 60.5971
45.0, 56.0939
50.0, 50.5098
55.0, 42.4469
60.0, 33.9333
65.0, 26.2277
70.0, 19.9978
75.0, 15.2067
80.0, 11.6673
90.0, 7.32057
100.0, 5.03599
110.0, 3.79472
120.0, 3.01307
130.0, 2.48465
140.0, 2.15843
150.0, 1.88257
160.0, 1.67798
180.0, 1.32638
200.0, 1.13909
