28.0, 0.225997
30.0, 25.9042
35.0, 163.039
40.0, 201.257
45.0, 136.614
50.0, 63.2628
55.0, 40.5538
60.0, 29.7855
65.0, 24.3283
70.0, 20.2423
75.0, 17.4815
80.0, 15.2435
90.0, 12.1468
100.0, 10.2842
110.0, 8.65434
120.0, 7.77593
130.0, 6.88149
140.0, 6.11428
150.0, 5.26594
160.0, 5.07431
180.0, 4.19444
200.0, 3.70751
