26.0, 9.97064e-07
28.0, 1.12824e-05
30.0, 6.02443e-05
35.0, 0.000894454
40.0, 0.0121275
45.0, 0.0928117
50.0, 0.339007
55.0, 0.707174
60.0, 1.06522
65.0, 1.41497
70.0, 1.79687
75.0, 2.14449
80.0, 2.48299
90.0, 2.9952
100.0, 2.96913
110.0, 2.66018
120.0, 2.14777
130.0, 1.7172
140.0, 1.25335
150.0, 1.08495
160.0, 0.798937
180.0, 0.655008
200.0, 0.491852
