40.0, 0.0388122
45.0, 20.7155
50.0, 98.9751
55.0, 168.209
60.0, 182.671
65.0, 149.503
70.0, 120.907
75.0, 110.375
80.0, 115.021
90.0, 134.023
100.0, 140.357
110.0, 132.113
120.0, 105.105
130.0, 79.0505
140.0, 57.5051
150.0, 40.6121
160.0, 27.8524
180.0, 13.6441
200.0, 7.63529
