19.0, 0.402865
20.0, 4.85615
22.0, 22.5456
24.0, 36.3277
26.0, 41.2295
28.0, 41.2521
30.0, 38.7865
35.0, 25.6011
40.0, 21.7271
45.0, 21.227
50.0, 19.545
55.0, 16.6273
60.0, 13.3117
65.0, 10.2979
70.0, 7.83294
75.0, 5.9523
80.0, 4.56609
90.0, 2.85744
100.0, 1.96054
110.0, 1.47709
120.0, 1.17484
130.0, 0.985762
140.0, 0.837046
150.0, 0.75039
160.0, 0.658541
180.0, 0.541732
200.0, 0.463235
