22.0, 92.7054
24.0, 509.519
26.0, 820.891
28.0, 943.995
30.0, 918.411
35.0, 380.488
40.0, 158.79
45.0, 104.524
50.0, 81.5556
55.0, 67.2021
60.0, 56.7099
65.0, 49.0016
70.0, 43.1022
75.0, 37.6976
80.0, 33.3851
90.0, 26.7778
100.0, 21.6636
110.0, 18.6496
120.0, 15.5284
130.0, 13.6557
140.0, 12.5942
150.0, 10.7935
160.0, 9.70901
180.0, 8.40566
200.0, 6.36813
