22.0, 2.6376e-07
24.0, 3.32209e-06
26.0, 2.2012e-05
28.0, 9.40962e-05
30.0, 0.000305351
35.0, 0.00352807
40.0, 0.0193726
45.0, 0.0463707
50.0, 0.0745453
55.0, 0.101936
60.0, 0.133871
65.0, 0.151608
70.0, 0.167686
75.0, 0.168814
80.0, 0.16273
90.0, 0.148066
100.0, 0.118066
110.0, 0.0970999
120.0, 0.0857772
130.0, 0.0652185
140.0, 0.0601292
150.0, 0.0490219
160.0, 0.042771
180.0, 0.0360459
200.0, 0.0282314
